<?xml version="1.0" encoding="UTF-8" standalone="no"?>
<svg width="307px" height="84px" viewBox="0 0 307 84" version="1.1" xmlns="http://www.w3.org/2000/svg" xmlns:xlink="http://www.w3.org/1999/xlink" xmlns:sketch="http://www.bohemiancoding.com/sketch/ns">
    <!-- Generator: Sketch 3.3.2 (12043) - http://www.bohemiancoding.com/sketch -->
    <title>wcs + Imported Layers + CONSULTING SERVICES</title>
    <desc>Created with Sketch.</desc>
    <defs>
        <linearGradient x1="50%" y1="100%" x2="50%" y2="0%" id="linearGradient-1">
            <stop stop-color="#7B61AA" offset="0%"></stop>
            <stop stop-color="#4EBDB9" offset="63.6513578%"></stop>
            <stop stop-color="#039BE5" offset="100%"></stop>
        </linearGradient>
    </defs>
    <g id="Page-1" stroke="none" stroke-width="1" fill="none" fill-rule="evenodd" sketch:type="MSPage">
        <g id="WCS" sketch:type="MSArtboardGroup" transform="translate(-141.000000, -56.000000)">
            <g id="Header-4" sketch:type="MSLayerGroup" transform="translate(0.000000, -3.000000)">
                <g id="wcs-+-Imported-Layers-+-CONSULTING-SERVICES" transform="translate(141.000000, 58.000000)">
                    <g id="wcs" transform="translate(0.000000, 3.296296)" fill="url(#linearGradient-1)" sketch:type="MSShapeGroup">
                        <path d="M39.062724,0 C59.6525965,0 76.7393216,15.9862181 78.0428719,36.4991098 L78.0659164,36.8634528 L77.7340757,36.7100452 C76.8073029,36.2816546 75.8640149,35.8896983 74.9065161,35.5349433 L74.7793873,35.4877705 L74.7655606,35.3527718 C72.9139354,17.0884515 57.456072,3.17055071 39.062724,3.17055071 C20.669376,3.17055071 5.21151262,17.0880679 3.35988742,35.3527718 L3.34606072,35.4877705 L3.21893192,35.5349433 C2.26143314,35.8896983 1.31814513,36.2816546 0.391372345,36.7100452 L0.0595316129,36.8634528 L0.0825761082,36.4991098 C1.38612639,15.9862181 18.4724674,0 39.062724,0 L39.062724,0 L39.062724,0 Z M53.1214025,60.2070974 C50.9068265,53.6769212 46.9401007,47.8623912 41.6863398,43.392862 C46.2030609,40.3619121 51.3527374,38.4282099 56.7551353,37.7455462 L56.9725217,37.7179329 L56.943332,37.5008612 C56.8215803,36.5896203 56.6606529,35.6833651 56.4605498,34.7863144 L56.4171494,34.5922539 L56.2197349,34.6179496 C50.0265267,35.4229558 44.1463397,37.7348077 39.0611877,41.3510074 C32.5795393,36.7407267 24.8849823,34.2957938 16.9242614,34.2957938 C11.0920837,34.2957938 5.36706296,35.6078119 0.129049174,38.1720192 L0.00921779813,38.2306976 L0.00729742352,38.3637787 C0.00499297399,38.5777822 0,38.7917858 0,39.0061728 C0,60.5484292 17.4888516,78.0123457 39.062724,78.0123457 C60.6365965,78.0123457 78.125448,60.5488127 78.125448,39.0061728 C78.125448,38.7917858 78.1204551,38.5777822 78.1173825,38.3637787 L78.1154621,38.2306976 L77.9956307,38.1720192 C73.1094295,35.7800119 67.7888397,34.473363 62.3499547,34.3126686 L62.0780296,34.3046147 L62.1298798,34.5715438 C62.3061701,35.478566 62.4486619,36.392108 62.5577392,37.3094852 L62.5796315,37.4928073 L62.7643715,37.5008612 C66.955013,37.6849502 71.0703758,38.613066 74.9284084,40.2556774 C74.3104318,58.2691764 60.3423951,73.0012878 42.46678,74.679183 C54.2440535,68.2107533 61.6106105,55.0924894 61.6106105,41.7253218 C61.6106105,27.0158381 52.7211964,13.7921065 39.1460683,8.19196362 L39.0631081,8.15744692 L38.9797638,8.19196362 C28.3923545,12.5590933 20.4220318,21.7248114 17.6167485,32.8280669 L17.5499195,33.0923115 L17.8229968,33.0984478 C18.7516899,33.1195413 19.6796149,33.1728504 20.6048514,33.2595257 L20.7876711,33.2767841 L20.8352964,33.0999818 C23.4039894,23.594466 30.0880453,15.7093175 39.062724,11.6129522 C50.8580489,16.9967904 58.4346949,28.7635337 58.4346949,41.7253218 C58.4343109,48.2209814 56.53314,54.6844253 53.1214025,60.2070974 L53.1214025,60.2070974 L53.1214025,60.2070974 Z M25.0036615,60.2070974 C21.591924,54.6848088 19.6907531,48.2213649 19.6907531,41.7253218 C19.6907531,40.8202172 19.7291606,39.9151126 19.802903,39.0126927 L19.8209545,38.7952374 L19.603184,38.7779791 C18.7125143,38.7077951 17.8187719,38.6728949 16.9254137,38.6728949 L16.6419664,38.6728949 L16.6266034,38.8734753 C16.5524769,39.8223011 16.5152216,40.7734279 16.5152216,41.7249383 C16.5152216,55.0921059 23.8821627,68.2103697 35.6590521,74.6787994 C17.783053,73.0005207 3.81540027,58.2687929 3.19742373,40.2552939 C7.54131109,38.4051987 12.2016762,37.465961 16.9254137,37.465961 C23.8994461,37.465961 30.6564762,39.5108837 36.4406445,43.3920949 C31.1861155,47.8616241 27.2182375,53.6761541 25.0036615,60.2070974 L25.0036615,60.2070974 L25.0036615,60.2070974 Z M39.062724,72.8509484 C34.4461435,70.741978 30.4582935,67.4878201 27.3207855,63.5160984 C29.2058252,56.3676897 33.3350147,50.0031937 39.062724,45.3346181 C44.7908174,50.0028101 48.920775,56.3669227 50.8054307,63.5149479 C47.6675386,67.4870531 43.6793046,70.741978 39.062724,72.8509484 L39.062724,72.8509484 Z" id="Shape"></path>
                    </g>
                    <g id="Imported-Layers-+-CONSULTING-SERVICES" transform="translate(100.132616, 0.000000)">
                        <g id="Imported-Layers" transform="translate(3.301075, 0.969836)" fill="#7867AB" sketch:type="MSShapeGroup">
                            <path d="M0,38.823476 C0.0490202546,38.0923729 0.0894417539,37.3605336 0.153013748,36.6306818 C0.16881488,36.4493046 0.226507383,36.2534997 0.322931033,36.1011252 C0.517615672,35.793579 0.653652391,35.4990619 0.612863423,35.1102493 C0.508061499,34.1121595 0.385106648,33.1100948 0.379374144,32.108987 C0.372980198,30.9859795 0.489026648,29.8623832 0.548409505,28.7388605 C0.581408147,28.1142723 0.680183593,27.4822494 0.620139293,26.8661264 C0.520702405,25.8444812 0.746401358,24.8631747 0.893903084,23.8776723 C1.04346263,22.8786256 1.31774088,21.8966566 1.56622286,20.9145404 C1.78501341,20.0498335 2.04848809,19.2028669 1.99961482,18.2868532 C1.97933058,17.9082725 2.1153673,17.5179141 2.20172232,17.1377139 C2.51568713,15.7560379 2.86228311,14.3812813 3.15074563,12.9943789 C3.37953132,11.8944853 3.54386308,10.7811209 3.7318598,9.67283568 C3.83849907,9.04427247 3.65726376,8.52053114 3.17132385,8.09299921 C2.99854031,7.94091915 2.87543847,7.73230595 2.70184651,7.514565 C3.21211282,7.32729895 3.60530376,7.45508741 3.99739231,7.59347585 C4.54756566,7.78766132 5.09766552,7.98214124 5.64717743,8.17801976 C5.70317958,8.19796831 5.7721901,8.2141627 5.80709958,8.25567923 C6.25511678,8.78825387 6.72275678,9.3072105 7.12792719,9.87106975 C7.2605097,10.055465 7.25734948,10.3586682 7.26418439,10.6089451 C7.286012,11.4157938 7.27263615,12.2235995 7.29247944,13.0305219 C7.35744781,15.665791 7.45041726,18.3005448 7.49172068,20.9361084 C7.50796277,21.9763772 7.42881013,23.0190752 7.36758993,24.0591231 C7.3448804,24.4455066 7.2178099,24.8257803 7.19480639,25.2122374 C7.16908362,25.6452165 7.13446812,26.0999109 7.23552187,26.5127942 C7.37361641,27.0770952 7.34708521,27.5874393 7.14086207,28.1231056 C6.99931333,28.4907919 6.93699072,28.8891003 6.83917069,29.2737907 C6.87643197,29.2991865 6.91361975,29.3246558 6.95080753,29.3501252 C7.09985262,29.2707727 7.24889771,29.1914938 7.42131378,29.099701 C7.43931972,29.1417328 7.48900142,29.2020201 7.48679661,29.2603199 C7.44821245,30.2852777 7.40896685,31.310309 7.35671287,32.3346779 C7.33811898,32.6986836 7.28527706,33.0609963 7.24581098,33.4238243 C7.23927004,33.484038 7.19076424,33.5593419 7.21273884,33.6001223 C7.53273013,34.1962232 7.17650648,34.7416061 7.06648651,35.2919946 C6.79132634,36.6678553 6.90737279,38.6116975 7.42653183,39.8379074 C7.56624323,39.6100082 7.69434263,39.4245088 7.79892408,39.2266427 C8.55862778,37.7881391 9.31913992,36.3500036 10.0689955,34.9063472 C11.6860024,31.7933436 13.5421577,28.8197589 15.3019628,25.7897883 C16.1897659,24.2612586 17.2984174,22.9308157 18.3226982,21.5221245 C18.4771818,21.3097572 18.7313228,21.172841 18.913293,20.9767416 C19.0454346,20.834231 19.1245872,20.6437996 19.2464397,20.4898793 C19.3314718,20.3824074 19.4343629,20.2704453 19.554231,20.2124399 C20.1791474,19.9101937 20.8492624,19.8782466 21.5280496,19.9144631 C21.9919414,19.93927 22.458332,20.0004406 22.9193576,19.9729102 C23.4210986,19.9428769 23.7922415,20.1439818 24.127152,20.4712558 C25.0260526,21.349507 25.4495964,22.4716311 25.6298028,23.6710466 C25.7787009,24.6614809 25.7909744,25.6726734 25.8574126,26.6751062 C25.8670403,26.8202668 25.8324983,26.967783 25.8328657,27.1142687 C25.8340416,27.5236923 25.8330127,27.9336312 25.8513127,28.3425396 C25.8720379,28.8062881 25.9664772,29.2727602 25.9359038,29.7317976 C25.7772311,32.1132564 25.9070943,34.4867653 26.0769381,36.8605686 C26.2442096,39.1983026 26.5276011,41.5193269 27.1242224,43.7906639 C27.3040613,44.4755394 27.5292458,45.1501094 27.7673652,45.8173919 C27.9352982,46.287839 28.1600417,46.7379695 28.3594299,47.1970804 C28.3966177,47.2031901 28.433732,47.2092998 28.4708463,47.2153359 C28.7796665,46.3783804 29.1569829,45.5596803 29.3845927,44.7011567 C30.0552956,42.1708567 30.6584578,39.6226692 31.3065982,37.0863331 C31.4934925,36.3547883 31.7258059,35.6334018 31.973112,34.9197444 C32.0670368,34.6486356 32.2325445,34.387685 32.4191448,34.1678094 C32.590973,33.9652323 32.6101548,33.7952648 32.4988119,33.5734752 C32.3901149,33.356912 32.4642699,33.1912876 32.5877392,32.9756813 C32.833355,32.5466772 33.0089313,32.0734329 33.1777461,31.6054886 C33.358614,31.1039778 33.4328426,30.5630851 33.9959508,30.2786527 C34.1180237,30.2170404 34.1714536,29.9056664 34.1602091,29.7150143 C34.1313261,29.2274159 34.2524436,28.8044478 34.5432579,28.4178435 C34.6149142,28.3225911 34.6937729,28.1988512 34.6932584,28.0885821 C34.6903187,27.4355801 34.807688,26.8154085 35.0732205,26.2148174 C35.1896344,25.9515114 35.2039657,25.6443332 35.3085471,25.3741077 C35.8449772,23.9879414 36.4293985,22.6194418 36.9292287,21.2203936 C37.2448104,20.3373576 37.456913,19.4154551 37.6840819,18.5031956 C37.7765369,18.1317551 37.971295,17.8742643 38.2676213,17.6533581 C38.3772738,17.57165 38.467965,17.415963 38.4933938,17.280151 C38.5374165,17.044449 38.41064,16.744043 38.8039044,16.6867001 C38.8360211,16.681989 38.8582897,16.5400673 38.8672559,16.459905 C38.8943751,16.2170628 38.8802643,15.9642095 38.9447182,15.7327033 C38.9964577,15.5470567 39.1357282,15.3845239 39.2427349,15.2158814 C39.4352882,14.912531 39.6448921,14.6191917 39.8232611,14.3078177 C39.9189498,14.1407946 39.9534183,13.9397633 40.0344818,13.7628028 C40.5678251,12.5977636 41.1243924,11.4429563 41.6348057,10.2679796 C41.8552866,9.76043262 41.9839005,9.21276775 42.1662382,8.64618489 C42.2398788,8.76646505 42.3498988,8.89241325 42.4006829,9.03897249 C42.5720701,9.53326947 42.6390228,10.0322039 42.4496297,10.5465967 C42.1213336,11.4383924 42.2393644,12.3881198 42.117071,13.3072251 C42.0513676,13.8012277 41.9230478,14.26424 41.5799795,14.6470166 C41.3643491,14.8875769 41.3495769,15.1689176 41.3365686,15.4925846 C41.3098169,16.1553769 41.1731187,16.8136789 41.0817661,17.4738212 C41.0398747,17.4748517 40.9980569,17.4759559 40.9561655,17.4769864 C40.8773803,17.3793048 40.7985951,17.2816968 40.6896776,17.1467681 C40.4877906,17.6869246 40.2102786,18.1716522 40.4575847,18.7570058 C40.1289211,18.8474 39.9669412,19.0490202 39.871179,19.3804899 C39.7586602,19.7700386 39.524142,20.1225611 39.3699524,20.5022459 C39.2794817,20.7249188 39.2487614,20.9711472 39.1798978,21.2033895 C39.0692899,21.576523 39.0141697,21.9862411 38.8186031,22.30954 C38.4918504,22.8496229 38.4671566,23.4385099 38.3568426,24.0238635 C38.2628443,24.5220619 38.0813885,25.0046548 37.9228627,25.4890143 C37.8883207,25.5944986 37.7867525,25.6778998 37.8063018,25.7851508 C37.7530924,26.0703193 37.7097312,26.3577697 37.6442483,26.6400674 C37.5594367,27.0055454 37.4633805,27.368815 37.3601219,27.7295819 C37.2665645,28.0567086 37.1720517,28.3849395 37.0507872,28.7022759 C36.8729326,29.1676438 36.6729564,29.6111493 36.707131,30.141442 C36.7257249,30.4294814 36.5461799,30.7259123 36.4870175,31.0247725 C36.4406431,31.258855 36.4418925,31.5024334 36.4769489,31.7572006 C37.203213,31.5164931 36.8633785,30.8595161 37.024844,30.3582997 C37.4556637,30.4530368 37.5233513,30.1320198 37.6111762,29.8128431 C37.8059343,29.1054427 38.0098792,28.4006186 38.2183071,27.6971931 C38.2636527,27.5440825 38.3433933,27.4012038 38.4072592,27.253614 C38.4598807,27.2696612 38.5125756,27.2857084 38.5651971,27.3017555 C38.4108604,27.9436423 38.2577732,28.5858235 38.1002028,29.2269742 C38.086239,29.2837282 38.0143623,29.3357711 38.0184044,29.3860473 C38.0871945,30.2447181 37.5334934,30.9421075 37.4120819,31.7486618 C37.2316551,32.9474148 37.0758486,34.1499955 36.8922615,35.3482333 C36.7737162,36.1218099 36.6004917,36.8876574 36.5004669,37.6632215 C36.4620297,37.9608302 36.5589678,38.2759584 36.5939508,38.5831365 C36.6086495,38.7118819 36.6579637,38.8485037 36.631506,38.968195 C36.3575218,40.2097895 36.0583292,41.4458632 35.7932376,42.689298 C35.6309637,43.4502872 35.2629811,44.1712321 35.3365482,44.9808044 C35.3422807,45.0436681 35.3020062,45.1512872 35.2543823,45.1720454 C34.9094767,45.3224324 34.9800306,45.6209981 34.9777523,45.8955667 C34.9772378,45.9568845 34.9709173,46.0191593 34.9787077,46.0794466 C35.095783,46.9898658 34.743528,47.830502 34.6126359,48.7044102 C34.3257167,50.6194706 33.271818,52.0897741 32.0682127,53.4980972 C31.793714,53.8192615 31.4896708,53.8512822 31.0846474,53.744252 C30.707919,53.6446565 30.293121,53.6398718 29.8991216,53.6629856 C27.6728524,53.7936449 26.1612353,53.5459443 24.9003785,51.6531144 C22.9247961,48.6872589 21.4572017,45.491811 20.4989917,42.0541835 C19.7328205,39.3055536 19.4254702,36.5061322 19.4087136,33.6627652 C19.4023197,32.5719257 19.3553572,31.4813807 19.3248574,30.3907621 C19.3219176,30.2857193 19.3042792,30.1811183 19.2934021,30.0762964 C19.2570227,30.0662117 19.2206434,30.0562007 19.1841906,30.046116 C19.0833573,30.292786 18.919099,30.5331255 18.8939642,30.7873038 C18.826938,31.4662169 18.8223814,32.151166 18.7857816,32.8333179 C18.7802695,32.9362995 18.7678491,33.0676213 18.7044976,33.1342392 C18.3049862,33.5542628 18.2457503,34.0913277 18.1541773,34.6225773 C18.0296055,35.3455833 17.9365626,36.0827961 17.3505244,36.6239832 C17.2988583,36.6716831 17.2837186,36.7781244 17.2819548,36.8579922 C17.2654922,37.6052161 17.020244,38.2678612 16.5736966,38.8635203 C16.4875621,38.9784269 16.390771,39.1171098 16.3798939,39.251376 C16.3277134,39.8943669 15.9376092,40.380714 15.6409889,40.9071053 C14.433415,43.0499913 13.2025436,45.1797746 12.0070226,47.3293592 C11.6877663,47.903524 11.4800733,48.5390066 11.1866132,49.1290713 C11.0837956,49.3358442 10.8805857,49.4939604 10.7175033,49.669007 C10.4922453,49.9108924 10.2616958,50.1477721 10.0273981,50.3930436 C9.73107174,50.46636 9.3874155,50.5527791 9.04273036,50.6349289 C8.99900164,50.6453816 8.94931995,50.638683 8.9036069,50.6317636 C8.19299695,50.5232612 7.48128458,50.4212365 6.77309992,50.2986744 C6.58554416,50.266212 6.35661149,50.2186594 6.23821324,50.0921223 C5.98083853,49.8168913 5.675252,49.8199093 5.34629448,49.7886247 C4.23587915,49.6830667 3.42090823,49.1000686 3.02852571,48.0696637 C2.52854852,46.7567402 1.83976617,45.5507734 1.14400192,44.3430398 C1.08432509,44.2394693 1.03765663,44.1244892 1.00627485,44.0089937 C0.773153041,43.151059 0.524303593,42.2965104 0.323665969,41.4308466 C0.197109929,40.8849484 0.146252334,40.3215308 0.0587214144,39.7664312 C0.0476238755,39.6961329 0.0199902687,39.6284845 0,39.5595847 L0,38.823476 L0,38.823476 Z M35.5697435,31.6830009 C35.7072501,31.0774779 36.2085502,30.5621282 35.9980644,29.8801235 C35.8345411,30.4786534 35.1514177,30.9449047 35.5697435,31.6830009 L35.5697435,31.6830009 Z M37.2764127,24.7656403 C37.723107,24.7035127 37.6942975,24.4082595 37.6649735,24.1757964 C37.6288882,23.8895237 37.7075263,23.6873146 37.9098543,23.4957055 C37.9860672,23.4235669 38.0020888,23.2876076 38.0455236,23.1807246 C38.005984,23.1656344 37.9663709,23.1506178 37.9268314,23.1356012 C37.3064716,23.4892278 37.4721997,24.1612214 37.2764127,24.7656403 L37.2764127,24.7656403 Z M36.3118822,32.4768205 C36.3475266,32.4882302 36.3832445,32.4996398 36.4188889,32.5110495 C36.4714369,32.3843652 36.5654353,32.257092 36.5636714,32.1311438 C36.562128,32.0235984 36.4505647,31.9175987 36.3877276,31.8109366 C36.3456158,31.8263948 36.3035039,31.8418531 36.2613921,31.8573114 C36.2782221,32.0637899 36.2950522,32.2702684 36.3118822,32.4768205 L36.3118822,32.4768205 Z" id="Fill-1"></path>
                            <path d="M65.7148444,41.0517642 C65.1747972,41.4633382 64.6138493,41.887059 64.0570217,42.3162198 C63.5183978,42.7313708 62.9916851,43.1624691 62.4441467,43.5655478 C62.1988818,43.7461844 61.92088,43.8859839 61.6481221,44.0259325 C61.1962474,44.2576897 60.7386793,44.4789397 60.2793134,44.6960165 C60.0329248,44.8124167 59.7788202,44.9127952 59.5265884,45.0166761 C59.3891233,45.0732368 59.2050622,45.0829989 59.1165152,45.1806201 C58.6619436,45.6822143 57.9928964,45.6438365 57.428952,45.854132 C56.8654571,46.0642784 56.2513211,46.1403634 55.6593592,46.2746484 C55.5148522,46.3074372 55.3634533,46.3210744 55.2262128,46.3724932 C53.7750748,46.9162657 52.2706737,47.1083038 50.7448476,46.8894385 C48.9434168,46.6309286 47.174648,46.2002029 45.5530832,45.3432973 C45.2020413,45.1577425 44.9264367,44.7926689 44.6772014,44.4644828 C44.3935062,44.0908394 44.186372,43.6606354 43.9303946,43.2650086 C43.7694068,43.0163353 43.552459,42.8612592 43.2235164,42.855074 C42.877194,42.8486653 42.5734971,42.4537837 42.5642828,41.994815 C42.5583646,41.7023984 42.6164222,41.4069266 42.6636173,41.1157024 C42.7065424,40.8504856 42.7735145,40.589144 42.8344936,40.3048501 C42.9440163,40.2361427 43.0864258,40.1468677 43.25483,40.0411983 C42.675903,39.298979 42.9517323,38.5568341 43.1833631,37.8263144 C43.3103404,37.4259929 43.5184485,37.0512318 43.646175,36.6511338 C43.8064887,36.149018 43.9213302,35.6325197 44.0571473,35.1226538 C44.0886856,35.004316 44.0885358,34.825617 44.1659957,34.7796382 C44.7698687,34.4209734 44.8790168,33.7305454 45.2567277,33.2241819 C45.6494961,32.697698 46.0257836,32.1533293 46.4692681,31.6714829 C47.1419111,30.9405906 47.8592022,30.249492 48.5738714,29.5582444 C48.7561345,29.3820045 48.9972043,29.264561 49.2160249,29.1276677 C49.5215197,28.9364494 49.8631226,28.7891978 50.1339328,28.5587074 C51.1493024,27.6947224 52.3147974,27.5332375 53.5763308,27.7664106 C54.0741271,27.8584428 54.5947719,27.901739 54.888805,28.423081 C54.9368242,28.5083319 55.1174393,28.5369476 55.2425438,28.5582603 C55.476347,28.598054 55.752476,28.5451448 55.9439534,28.6509632 C56.6491086,29.0404793 57.3776367,29.4168799 57.9991891,29.9185486 C58.5282241,30.3456974 59.0594315,30.9100374 58.964442,31.6661175 C58.8976196,32.1982649 58.7353583,32.8109685 58.3969018,33.1986216 C57.5670165,34.1489008 56.6717323,35.0654224 55.6881258,35.8541423 C54.6350001,36.6986031 53.4680817,37.4088533 52.3167452,38.1233512 C51.7048565,38.5031052 51.1137936,38.9000733 50.5255775,39.3142556 C49.8407985,39.7964746 49.0258959,40.0954489 48.270549,40.4800467 C48.1934636,40.5193187 48.1043922,40.5888459 48.0777981,40.6642601 C47.8442946,41.3249546 47.7907318,41.9973487 48.0137476,42.6717548 C48.2190089,43.292581 48.6596467,43.6431977 49.3012758,43.778526 C49.7504536,43.873241 50.1882446,44.0199709 50.6358493,44.1232556 C50.8260532,44.1671479 51.0290671,44.1798908 51.2248146,44.1719172 C54.7385297,44.0290623 58.0132727,43.0252777 61.1015575,41.3969409 C62.1011205,40.8699354 63.0504918,40.248513 64.0201645,39.665841 C64.5838092,39.327073 65.1479035,38.9883795 65.6982886,38.6292676 C65.819273,38.5503509 65.9533671,38.3898348 65.9627312,38.258605 C66.082442,36.5734094 66.6541024,34.9888159 67.0685956,33.3727748 C67.5884163,31.3461285 68.1729617,29.3345353 68.78515,27.3332258 C69.0228487,26.5560566 69.4184638,25.8273999 69.731375,25.072214 C70.537363,23.1270181 71.3293423,21.1759351 72.1451439,19.2347633 C72.3651631,18.7112602 72.6496074,18.2145098 72.9061093,17.7062833 C72.9339019,17.651213 72.9604211,17.5854118 73.0072417,17.5514307 C73.998789,16.8327597 74.194012,15.5373782 75.1008328,14.7333073 C75.6354113,14.2594345 75.9961919,13.5915862 76.4345823,13.0104791 C76.5168366,12.9014563 76.6465109,12.799662 76.6689099,12.6787905 C76.8172374,11.8787436 77.4631365,11.3578487 77.789607,10.6601924 C77.8153021,10.6053456 77.8606994,10.5598139 77.8947847,10.5085441 C78.2918981,9.91186239 78.6737292,9.30437524 79.0930167,8.72349173 C79.2509332,8.50470096 79.493651,8.3458243 79.7010099,8.16332478 C79.7893322,8.08560041 79.9145866,8.03552296 79.9748166,7.94214938 C80.7354823,6.7626466 81.711223,5.77085973 82.6974514,4.7822027 C83.8217444,3.65516201 84.9079816,2.49063775 86.0168425,1.34824594 C86.1037415,1.2587474 86.2349889,1.16783299 86.351928,1.15889058 C86.8256023,1.12237578 87.2439909,0.944421983 87.5388481,0.596935158 C88.166918,-0.143123101 88.92219,-0.0912571716 89.7128208,0.197284323 C90.5054743,0.486571017 91.2821714,0.81907932 92.0655357,1.13355378 C92.4363546,1.28244477 92.6389191,1.51986553 92.6112013,1.95528597 C92.5413076,3.0567663 92.4980828,4.16003511 92.4559818,5.26308036 C92.4504382,5.40951218 92.5291717,5.55735989 92.5406334,5.706698 C92.5502222,5.83278586 92.5415323,5.96953009 92.5015288,6.08838951 C92.3284051,6.60347185 92.1017186,7.10365018 91.9664259,7.62767492 C91.6609311,8.81068014 91.4998683,10.0408565 91.0879971,11.1833974 C90.7049674,12.2459783 90.1254411,13.2508807 89.5405211,14.2267202 C88.0397908,16.7308163 86.1225446,18.9288586 84.2631313,21.1672163 C83.8338803,21.6838635 83.4501764,22.2504392 82.9595717,22.7015834 C81.9962666,23.5872537 81.330141,24.7308379 80.3439125,25.5899046 C80.0638132,25.8338831 79.7675326,26.0643735 79.5191214,26.3374148 C79.4095987,26.4576901 79.4142433,26.6746179 79.3431509,26.8373696 C79.2584994,27.0309726 79.1766945,27.2370204 79.043799,27.3966423 C78.552595,27.9865427 78.0057308,28.5332961 77.5451662,29.1449564 C76.8730475,30.0376316 76.2401833,30.9611581 75.6276953,31.8955646 C75.4307493,32.1959548 75.3227248,32.5643817 75.2234652,32.9154455 C75.0322126,33.5923108 74.8781916,34.265301 74.5228797,34.9005096 C74.2815103,35.3320551 74.235289,35.8962461 74.1922141,36.4085712 C74.0182663,38.4789607 73.6478969,40.5114196 73.1164647,42.5189888 C72.8583897,43.4939341 72.8079733,44.4816969 73.1319717,45.4545557 C73.4582923,46.4343448 73.5307331,47.4443891 73.5476634,48.4638974 C73.5575519,49.0578219 73.6464736,49.6238014 74.0974493,50.0889553 C75.3494688,49.6781265 76.4902426,49.0565551 77.5683143,48.3123982 C79.1043286,47.2522765 80.4240693,45.9482508 81.7516759,44.6519006 C83.0695439,43.365089 84.3998473,42.0907968 85.7213111,40.8075621 C86.308928,40.2369624 86.8864316,39.6560043 87.4729248,39.0842123 C87.6147349,38.9459776 87.762613,38.8084882 87.9268221,38.6990928 C89.2118033,37.8423362 90.303584,36.7761039 91.3445738,35.6474237 C91.6948666,35.2676698 92.1174503,34.9528227 92.5143389,34.616961 C92.9784244,34.2242405 93.4624367,33.8541741 93.9166337,33.4506483 C94.7156548,32.7406216 95.4945993,32.0083134 96.2895002,31.2935919 C96.8879045,30.7556319 97.4595649,30.1941982 97.6466974,29.3803651 C97.7712776,28.8383065 97.8140528,28.2779905 97.9306922,27.7337709 C97.9679989,27.559394 98.1208961,27.4080439 98.2271975,27.250285 C98.3155199,27.1193533 98.4439955,27.0070517 98.5018283,26.8651656 C100.152684,22.8173875 102.177655,18.958145 104.29372,15.1336288 C105.279424,13.3520788 106.413381,11.701386 107.641128,10.0959268 C107.671243,10.0565803 107.712071,10.0173827 107.722484,9.97229812 C107.912838,9.14616925 108.556414,8.65143087 109.098484,8.07606184 C109.796972,7.33466222 110.466843,6.56665896 111.154169,5.81475202 C111.287889,5.66854375 111.440037,5.53761209 111.592635,5.41025738 C112.37952,4.7538851 113.20124,4.60074647 114.12574,5.16553366 C114.533041,5.41435598 115.005517,5.55706181 115.447054,5.75096289 C115.617331,5.82578098 115.793975,5.89307255 115.950319,5.99121541 C116.660568,6.43706866 116.726042,6.53156003 116.398747,7.28167849 C115.725205,8.82543511 115.004543,10.3489223 114.29789,11.8782965 C113.949695,12.6316193 113.595656,13.3824085 113.232928,14.1288755 C112.800755,15.0184209 112.361766,15.904911 111.911389,16.7853649 C111.845541,16.9141355 111.693767,16.9970763 111.593534,17.11139 C111.516823,17.1988765 111.43749,17.2944857 111.396812,17.4006767 C111.308265,17.6316142 111.251706,17.874624 111.165856,18.1067538 C111.123755,18.2205459 111.06742,18.3865019 110.979323,18.4160864 C110.57734,18.5510421 110.515911,18.8868293 110.404066,19.2203064 C110.351403,19.37732 110.188842,19.5007252 110.067033,19.6309862 C109.984329,19.7193669 109.870612,19.781293 109.796598,19.8751883 C108.488843,21.5343019 107.193224,23.202954 105.875581,24.8543175 C105.45914,25.3761812 104.965015,25.8367149 104.5473,26.3577588 C104.303159,26.6623966 104.081567,27.010256 103.94972,27.3744354 C103.296105,29.1798317 102.682643,30.9996105 102.041613,32.8095526 C101.432646,34.5288783 101.154569,36.3176568 100.920616,38.1123223 C100.745845,39.4526392 100.593921,40.7994394 100.517435,42.1481772 C100.408587,44.0690796 100.550771,45.9699361 101.365449,47.7578948 C101.492427,48.0366742 101.666974,48.3027851 101.861822,48.540504 C102.344786,49.1297337 102.746169,49.17534 103.479267,48.8341128 C103.726629,48.7189794 103.959159,48.5716533 104.209443,48.4641955 C104.339342,48.40838 104.493138,48.4074857 104.680046,48.3738772 C104.280385,49.5482381 103.410272,50.0853039 102.321188,50.3157943 C100.707339,50.6573195 99.239271,50.1823289 97.923126,49.3079111 C96.9208662,48.6420748 96.3599932,47.6258453 96.0347214,46.4531984 C95.2271602,43.5416269 94.9550016,40.5806487 95.0681201,37.5740642 C95.0717908,37.4768156 95.0685696,37.3793434 95.0685696,37.2086926 C94.9113274,37.2818712 94.7749859,37.3107105 94.688012,37.3919373 C94.3709805,37.6877817 93.9858533,37.9535946 93.7792434,38.3167307 C93.1063008,39.4993633 92.1245671,40.4254235 91.2788752,41.4643815 C90.8423577,42.0007021 90.4671189,42.5861313 90.0599672,43.1463728 C89.973293,43.2655303 89.8810003,43.3861782 89.7699794,43.4814893 C88.4426724,44.6211238 87.2463881,45.8802885 86.1854715,47.2712046 C85.8577275,47.7008125 85.4863093,48.0979296 84.9367482,48.2989101 C84.7549345,48.3653819 84.6533526,48.6396156 84.5059989,48.8110861 C84.3772986,48.9607969 84.2509205,49.1187793 84.096525,49.2387565 C83.8541068,49.4269941 83.5878663,49.5846039 83.3338366,49.7582355 C82.8439062,50.093203 82.3643886,50.4441923 81.8641951,50.7631379 C81.0919929,51.2554171 80.2388846,51.6213849 79.6167329,52.3410247 C79.4645848,52.5171155 79.122907,52.5293368 78.8701508,52.6218161 C78.6971769,52.6851581 78.4667448,52.708781 78.3664364,52.8333784 C77.8418962,53.4850559 77.0792079,53.5341646 76.3518035,53.6744113 C74.7605034,53.9811357 73.257301,53.7113732 71.815602,52.9962047 C70.7017219,52.4436387 69.5739081,51.9189433 68.4535106,51.3792694 C67.7204877,51.0261936 67.3324389,50.4439687 67.1169893,49.6556215 C66.5881791,47.7205603 66.3202905,45.7464506 66.0783218,43.7643672 C65.9673009,42.8549995 65.835604,41.9480909 65.7148444,41.0517642 L65.7148444,41.0517642 Z M79.1002084,22.6246787 C79.1241805,22.6518785 79.1481526,22.6791528 79.1721248,22.7063526 C79.3202276,22.6083588 79.4889315,22.530858 79.6122381,22.4081235 C79.9026006,22.1192094 80.1710884,21.80861 80.4487157,21.506953 C80.8571409,21.0631118 81.2669894,20.6205374 81.6728676,20.1744606 C81.7278536,20.1140249 81.7692056,20.0391323 81.8069617,19.9658791 C81.8871185,19.810803 81.9346882,19.6309862 82.0429373,19.500129 C82.2243764,19.2809657 82.4641726,19.109197 82.6423155,18.8879471 C84.2650041,16.8726279 85.8402728,14.827128 86.707165,12.3456115 C86.7488915,12.2260814 86.8548933,12.1266717 86.9390205,12.0244303 C87.0757365,11.8580271 87.2632435,11.7178549 87.3529143,11.5304371 C88.3951776,9.35124832 89.3524897,7.12988123 90.6315528,5.0692538 C90.6939552,4.96880082 90.7318611,4.84129708 90.7419744,4.72303381 C90.7710406,4.38158311 90.6714813,4.3133973 90.3551241,4.45014152 C90.2190074,4.50893781 90.0814673,4.57608035 89.9650526,4.6656534 C89.7289271,4.8473332 89.4685298,5.01641911 89.2850681,5.24407775 C88.1090103,6.70362675 86.9181198,8.15341362 85.8020672,9.65774914 C85.288764,10.3495184 84.9192186,11.1498634 84.5100442,11.9144387 C83.410922,13.9681358 82.2991395,16.0157967 81.2436915,18.0917008 C80.4863969,19.5811323 79.8117312,21.112146 79.1002084,22.6246787 L79.1002084,22.6246787 Z M106.515712,19.853801 C106.985116,19.7484297 107.253304,19.4759845 107.472275,19.1615846 C109.061028,16.8809741 110.68087,14.620335 112.210367,12.3008995 C113.038903,11.044343 113.709299,9.68465087 114.434381,8.40096911 C114.119297,8.06123236 113.935236,8.11503581 113.690196,8.40320471 C110.754209,11.855717 108.604509,15.7929074 106.515712,19.853801 L106.515712,19.853801 Z M55.0022981,32.533903 C54.9157737,32.3055737 54.8962214,32.0808214 54.7986848,32.0399844 C54.6759775,31.9884911 54.4712405,32.0538451 54.3343746,32.128067 C54.0296289,32.2933524 53.7376933,32.4850179 53.4535486,32.6842844 C52.3018375,33.4920069 51.3826561,34.5387895 50.4718649,35.5910866 C50.1065146,36.013168 49.7692567,36.4596174 49.4262305,36.9004778 C49.3822566,36.9570385 49.3811329,37.046537 49.3600824,37.1207589 C49.4487044,37.1311172 49.541896,37.1631608 49.6244501,37.1455741 C49.7046069,37.128509 49.7779466,37.0659867 49.8471661,37.0140463 C50.7405775,36.3433662 51.6400568,35.6802871 52.5229804,34.9961188 C53.2094823,34.4640459 53.8959842,33.9281725 54.5382875,33.3457986 C54.7648991,33.1403469 54.8605629,32.7920404 55.0022981,32.533903 L55.0022981,32.533903 Z" id="Fill-2"></path>
                            <path d="M175.592091,34.5212515 C175.568237,34.3107986 175.669836,34.1195313 175.955287,33.9509779 C176.119286,33.8541681 176.20183,33.5320568 176.224448,33.3016098 C176.242702,33.1156351 176.172303,32.9395839 176.415937,32.8700455 C176.4483,32.860857 176.501463,32.8263818 176.499427,32.808887 C176.450118,32.3801894 176.908223,32.2770579 177.02844,31.9611213 C177.159129,31.6176193 177.427418,31.4653111 177.76356,31.4702362 C178.63206,31.482953 179.211836,31.0258814 179.629068,30.2749256 C179.325216,30.4504623 179.021438,30.6260724 178.665587,30.8316738 C179.016274,30.3294684 179.368707,29.9793507 179.975755,29.9114295 C180.447168,29.8587244 180.984763,29.7786008 181.347232,29.5097828 C181.891226,29.1063719 182.541547,29.0333051 183.103941,28.7217055 C183.351357,28.5845399 183.648299,28.5388916 183.984659,28.4320112 C183.920515,28.5563129 183.888879,28.6177655 183.833752,28.7245723 C183.956005,28.7245723 184.036877,28.7394944 184.110113,28.7219995 C184.433091,28.6448163 184.727852,28.6823053 185.011631,28.872323 C185.127993,28.9502413 185.279919,29.0000796 185.419772,29.0116938 C186.174528,29.0743225 186.831394,29.4145166 187.502442,29.723764 C187.762293,29.8435082 188.045054,29.9117235 188.312906,30.015296 C188.398287,30.048301 188.470286,30.1179864 188.546649,30.1734113 C188.934718,30.4556078 189.298714,30.7822765 189.715073,31.0116944 C190.436521,31.4092247 190.773026,31.944141 190.729827,32.77647 C190.720954,32.9470081 190.6867,33.13879 190.747354,33.2857322 C190.884298,33.6173994 190.699427,33.7597105 190.454411,33.8127832 C189.925253,33.9275289 189.388968,34.0173554 188.851446,34.0823363 C186.965865,34.3102841 185.078903,34.5264705 183.191722,34.7405988 C182.350567,34.8360855 181.505121,34.8966559 180.666439,35.0097844 C180.118663,35.0837333 179.579541,35.2237657 179.012056,35.3392464 C178.964056,35.9112107 179.22289,36.388791 179.628559,36.7340572 C180.330442,37.3315287 181.080253,37.8731343 181.824972,38.4173126 C182.706563,39.0614616 183.618263,39.6642992 184.488072,40.3239583 C184.872214,40.6152698 185.185811,41.0018474 185.530535,41.3460845 C185.81235,41.6275459 186.120492,41.6290895 186.461216,41.4597275 C186.970592,41.2064931 187.469351,40.9156227 188.003164,40.7312651 C189.779146,40.1179159 191.557964,39.5082421 193.3562,38.966857 C195.150654,38.4265746 196.951654,37.8776918 198.784362,37.507874 C200.126239,37.2370712 201.522952,37.1859097 202.897411,37.160329 C203.705257,37.1453334 203.598568,37.1962008 203.497259,37.9294413 C203.418278,38.5013321 203.093918,38.8648282 202.556687,39.1256339 C201.733932,39.5250019 200.846087,39.5251489 199.988205,39.7073748 C199.529591,39.8047726 199.056723,39.9033466 198.636873,40.1019647 C197.864954,40.467078 197.085107,40.7793392 196.240243,40.9146671 C195.442942,41.0423502 194.719531,41.3735764 193.994666,41.7197982 C192.215411,42.569769 190.423648,43.3930566 188.63283,44.2181818 C188.239089,44.399599 187.82862,44.5441154 187.436697,44.7012751 C187.792402,45.593954 187.615895,46.4051127 187.262735,47.2064214 C187.201863,47.3446896 187.179172,47.5001586 187.139391,47.6477623 C187.122009,47.7123022 187.126809,47.7985268 187.0863,47.8385886 C186.55147,48.3676978 186.048129,48.9400297 185.458753,49.399086 C184.980504,49.7715501 184.400728,50.0133173 183.857388,50.2962489 C183.735207,50.3598331 183.5771,50.3769604 183.436083,50.3749757 C183.047433,50.3694626 182.684964,50.3704182 182.335076,50.6280631 C182.167951,50.7511152 181.868972,50.6992922 181.628902,50.7109799 C181.316614,50.7261961 181.004254,50.6936321 180.737711,50.9373105 C180.669712,50.9994981 180.48295,50.9675957 180.366297,50.9298127 C179.874665,50.7706683 179.572486,50.3987187 179.327034,49.9599506 C179.263181,49.8457195 179.152273,49.7119352 179.037874,49.6806944 C178.458098,49.5220646 178.045593,49.1429113 177.66407,48.7048782 C177.352509,48.3471157 177.034767,47.9939106 176.70248,47.6559952 C176.389028,47.3371183 176.38241,47.3151395 176.774188,47.1033635 C176.701316,47.0058921 176.629826,46.9102584 176.576444,46.8388823 C176.690989,46.65254 176.798842,46.4772239 176.910332,46.2960271 C177.212583,46.148938 177.542762,45.9883234 177.928212,45.800805 C177.791777,45.678635 177.725742,45.6193877 177.663852,45.5639628 C177.732142,45.5026573 177.816286,45.457156 177.856868,45.3862209 C178.475843,44.3056561 179.504414,43.8982022 180.624476,43.590278 C181.199233,43.4323832 181.736901,43.1368818 182.364676,42.8726212 C182.208823,42.6911304 182.098788,42.5174315 181.947517,42.3964376 C181.644247,42.1540088 181.310214,41.9511273 181.005854,41.7100216 C180.873855,41.6054935 180.787165,41.4439234 180.673275,41.3141821 C180.622658,41.2565519 180.55604,41.2131088 180.496041,41.1641526 C180.275752,40.9843525 180.000482,40.8426294 179.847611,40.6163724 C179.624268,40.2857342 179.348852,40.0617559 178.997365,39.9100358 C178.499188,39.695099 178.068066,39.3937169 177.734614,38.9528171 C177.649161,38.8399091 177.529162,38.7180331 177.4016,38.679515 C176.880078,38.5221348 176.672662,38.081676 176.4411,37.6570948 C176.243284,37.2943338 176.046704,36.9307641 175.822052,36.5169151 C174.503084,37.047274 173.158298,37.5289707 171.863984,38.1231344 C170.159347,38.9056985 168.493109,39.7738993 166.813781,40.6121824 C166.496257,40.7706653 166.445276,41.021768 166.594438,41.3828384 C166.797417,41.8741646 166.98207,42.3732826 167.181632,42.866079 C167.236249,43.0008189 167.330866,43.1196075 167.380757,43.2555234 C167.450065,43.444659 167.494501,43.6430566 167.502428,43.85373 C167.775735,44.1560677 168.058786,44.4562001 167.858716,44.9747242 C167.778935,44.8778409 167.717117,44.8027159 167.598136,44.658273 C167.445047,45.1734158 167.301485,45.6331337 167.172686,46.0970415 C167.053124,46.5275767 166.90578,46.9359127 166.525929,47.2110524 C166.479239,47.244866 166.420549,47.2983062 166.414876,47.3481445 C166.332186,48.0748427 165.803755,48.4925876 165.286451,48.8508647 C163.861811,49.8374866 162.428226,50.8333704 160.756243,51.3567461 C158.856117,51.9515713 156.907701,52.0719771 154.93623,51.8202128 C154.842194,51.8082311 154.728959,51.7910302 154.664087,51.7320035 C154.415653,51.5055994 154.130129,51.5435294 153.840677,51.5799158 C153.340683,51.6426915 152.906942,51.5605097 152.612108,51.0823414 C152.553054,50.9865607 152.392765,50.9126854 152.274003,50.9044525 C151.957351,50.8824737 151.80128,50.6718003 151.602737,50.4649493 C151.394593,50.2481747 151.099106,50.1193155 150.853944,49.935399 C150.7442,49.8531438 150.661365,49.732738 150.571329,49.6254165 C150.473294,49.5086126 150.388349,49.3799004 150.284132,49.2694917 C150.197297,49.1776069 150.090825,49.1046872 149.898827,48.9450282 C150.624201,48.9119497 150.858817,48.3976155 151.198014,47.9936166 C151.406666,47.7451602 151.690663,47.5630078 151.924697,47.3342515 C152.681853,46.5942483 153.599444,46.1013784 154.502198,45.5802815 C154.757177,45.4331189 154.960884,45.1951741 155.187646,44.9983202 C155.240663,44.9523043 155.286335,44.8718867 155.344662,44.8617427 C155.979201,44.7507459 156.406978,44.3064646 156.874755,43.9203281 C157.189589,43.6604045 157.49264,43.3923215 157.940126,43.3412335 C158.162306,43.3158733 158.365358,43.1226213 158.577865,43.0069935 C158.960552,42.7988194 159.339021,42.5819713 159.728399,42.3876167 C160.01836,42.2428798 160.27443,42.0868962 160.344974,41.7314124 C160.35712,41.6698864 160.448028,41.6116682 160.515155,41.5758699 C161.15413,41.2353082 161.795869,40.8998185 162.469607,40.5456579 C161.891359,39.6784127 161.187293,39.0335286 160.490064,38.3819554 C159.314367,37.2832341 158.025944,36.3421135 156.708866,35.4195905 C155.541969,34.6022571 154.490998,33.6000516 153.461045,32.6032856 C152.277057,31.4573723 151.931097,29.9396565 151.923461,28.3426992 C151.921279,27.8820257 152.065132,27.4132664 152.18964,26.9617079 C152.293566,26.5849804 152.467164,26.2278794 152.619672,25.8371854 C152.744616,25.8972413 152.848251,25.9470796 152.975741,26.0083851 C153.151739,25.6700286 153.338719,25.3315986 153.75726,25.217588 C153.747369,25.3371852 153.739297,25.4353917 153.721115,25.6552535 C153.99864,25.4912576 154.233037,25.4121632 154.383872,25.2525042 C154.823649,24.7868322 155.348589,24.7030333 155.960874,24.6774526 C156.572722,24.6517984 157.176134,24.4324511 157.78471,24.305209 C157.929072,24.2749973 158.079252,24.272204 158.226887,24.2588256 C158.480557,24.2357441 158.734446,24.2150149 158.988116,24.192007 C159.129932,24.1791431 159.274004,24.1398165 159.412839,24.1541505 C159.797926,24.1940652 160.180322,24.2603693 160.564827,24.3077818 C160.976241,24.3584287 161.361837,24.2965351 161.771578,24.1809808 C162.194919,24.0616041 162.674987,24.1461381 163.130182,24.1443739 C163.455343,24.1430508 163.78123,24.1339358 164.105227,24.15393 C164.241298,24.1623098 164.37286,24.2388315 164.507477,24.2809515 C164.711984,24.3449768 164.9154,24.4144416 165.122962,24.4664117 C165.455104,24.549549 165.8095,24.5735126 166.120624,24.7046505 C167.167959,25.1463589 168.205112,25.6139421 169.234702,26.096668 C169.454045,26.1995054 169.624952,26.4076795 169.834259,26.5805699 C169.579571,26.8768799 169.285537,26.8958449 169.00714,26.816383 C168.493182,26.6697349 167.986496,26.5258066 167.444756,26.6215138 C167.375884,26.6336425 167.294867,26.6250421 167.22934,26.5999025 C165.800991,26.0522692 164.335915,26.30396 162.888294,26.4366416 C162.013539,26.5168386 161.152457,26.7494909 160.285266,26.9140013 C160.237776,26.9229693 160.189122,26.9302466 160.143886,26.9464183 C159.297276,27.2489765 158.439976,27.5254393 157.609948,27.8692354 C157.252133,28.0174271 156.895119,28.2537548 156.634612,28.5400677 C155.857166,29.3945225 155.83513,30.3296154 156.583704,31.3640174 C156.928937,31.8410096 157.353151,32.2786751 157.807328,32.6526094 C159.422148,33.9818511 161.083076,35.2542714 162.689096,36.5940248 C163.339635,37.1366595 163.891411,37.7997735 164.494823,38.4011409 C164.580931,38.486998 164.729148,38.6097561 164.808056,38.5847634 C165.133653,38.481485 165.24107,38.6674597 165.322451,38.9603149 C165.462304,38.896216 165.579539,38.8435109 165.695901,38.7888946 C166.671237,38.3310145 167.645918,37.8718847 168.622126,37.4159892 C168.748161,37.3571829 168.865178,37.239938 169.024304,37.4056246 C169.056158,37.4387031 169.296301,37.3044043 169.409318,37.2094322 C169.506117,37.1281326 169.558407,36.9925107 169.637897,36.8692381 C169.973603,37.0777797 170.194183,36.8343219 170.390617,36.6487881 C170.880939,36.1856154 171.381225,35.838585 172.115836,35.9478176 C172.443105,35.9964798 172.793356,35.9016547 173.026808,35.5527866 C173.166589,35.3439509 173.390004,35.1331305 173.619529,35.0561678 C174.254214,34.8432892 174.911807,34.700243 175.592091,34.5212515 L175.592091,34.5212515 Z M156.46276,48.0131697 C156.653521,48.0351485 156.798029,48.0437489 156.939628,48.0692561 C158.572993,48.3637284 160.147667,48.1990709 161.623943,47.40526 C162.866476,46.737074 163.80603,45.79169 164.153663,44.356744 C164.28028,43.8343975 164.294898,43.3189607 164.045227,42.8195486 C163.937229,42.6034356 163.815775,42.5502895 163.589087,42.6673139 C162.911348,43.0172111 162.300082,43.4778111 161.638343,43.8581405 C160.032469,44.7809576 158.522884,45.8742393 156.966318,46.8860744 C156.497305,47.1909113 156.335925,47.7493501 155.926547,48.0999089 C155.871493,48.1471009 155.882693,48.2733138 155.862984,48.3641695 L156.579995,48.3641695 C156.53585,48.2319289 156.506468,48.1438666 156.46276,48.0131697 L156.46276,48.0131697 Z M181.581484,33.1851735 C183.320521,33.0424948 184.977013,32.9066524 186.631323,32.7709569 C186.646014,32.2902893 186.438671,32.0420535 185.960785,32.0594748 C185.029594,32.0935089 184.069531,31.9326003 183.197322,32.4454643 C183.049905,32.5322036 182.845253,32.5604306 182.670491,32.5508745 C182.19806,32.5249263 181.932244,32.82844 181.581484,33.1851735 L181.581484,33.1851735 Z" id="Fill-3"></path>
                            <path d="M112.867392,35.8632549 C112.981309,35.7880479 113.049948,35.77011 113.061856,35.7306318 C113.149666,35.43767 113.36978,35.3154861 113.579556,35.1597789 C113.700671,35.0698687 113.765187,34.8837993 113.845145,34.7279451 C113.963774,34.5617251 114.070166,34.3819046 114.202928,34.2314906 C115.239243,33.0575112 116.280596,31.8891191 117.320771,30.7194773 C117.343803,30.6936731 117.369976,30.6558123 117.397262,30.6527981 C117.93001,30.5940587 118.178718,30.0178392 118.625489,29.8028044 C118.671226,29.7807496 118.737116,29.7228189 118.736789,29.6820909 C118.73391,29.2801046 119.034898,29.2706211 119.254227,29.1297641 C119.463806,28.9952296 119.662458,28.8091602 119.815439,28.5991981 C120.145609,28.1460446 120.497569,27.9432135 121.039871,28.1444272 C121.358656,28.2627147 121.728414,28.2189726 122.075531,28.2256626 C122.358264,28.2311028 122.644399,28.170893 122.923336,28.2025785 C123.084365,28.220884 123.242449,28.3495373 123.386661,28.4547389 C123.509674,28.5444286 123.617964,28.6643334 123.719319,28.7851204 C123.7786,28.855843 123.843443,28.9509729 123.851361,29.0411772 C124.003556,30.7634399 124.084038,32.4857762 123.806736,34.2034809 C123.791359,34.2986843 123.783311,34.4026362 123.742743,34.4843126 C123.267379,35.4409047 123.056033,36.4868924 122.922551,37.5564053 C122.729133,39.1061257 122.188795,40.5442485 121.799211,42.030745 C121.550373,42.980206 121.284522,43.9240063 121.026261,44.8703061 C121.016708,44.9053733 121.000088,44.9394848 120.99734,44.9750666 C120.926019,45.9096039 120.794369,46.8448027 120.800455,47.7788254 C120.809681,49.1865125 121.965344,50.2559519 123.217454,50.1135511 C123.247618,50.1101694 123.279025,50.1211968 123.365527,50.1331799 C123.297739,50.447682 123.269865,50.7696092 123.153461,51.044192 C123.083907,51.2085006 122.880805,51.3073063 122.728545,51.419786 C122.594016,51.5191798 122.402496,51.5599813 122.315471,51.6924574 C122.186504,51.888672 122.041638,51.9835078 121.849725,51.9290324 C121.178129,51.738405 120.49698,51.5726996 119.845014,51.3158342 C118.815504,50.9101721 118.066633,50.0637072 117.369191,49.158797 C117.34099,49.1221859 117.29558,49.0788849 117.296823,49.0402154 C117.320837,48.2635173 116.78076,47.7295696 116.618619,47.0427082 C116.480949,46.4594311 116.408254,45.8488795 116.369388,45.245312 C116.202797,42.6598961 116.402823,40.1120471 117.061922,37.6196292 C117.216734,37.0343672 117.393008,36.4560891 117.539249,35.868254 C117.595521,35.6421184 117.595521,35.3982653 117.627975,35.0995692 C117.353357,35.4363467 117.129186,35.7099738 116.906717,35.9853653 C116.86327,36.0391791 116.802941,36.0942427 116.790705,36.1584223 C116.694455,36.6630371 116.399683,37.0283388 116.129513,37.4193712 C115.249058,38.6939206 114.382867,39.9808943 113.511048,41.2630159 C113.47807,41.3115365 113.430959,41.3535877 113.412377,41.4080632 C113.059959,42.44295 112.31076,43.1872275 111.831273,44.1295574 C111.771403,44.2473303 111.64296,44.3231989 111.54154,44.4117124 C111.279157,44.6406417 111.019914,44.8750111 110.747717,45.088355 C110.619273,45.1890721 110.470153,45.2736157 110.319332,45.3174313 C110.06081,45.3924913 109.841285,45.4745353 109.927459,45.7772748 C109.353422,45.6484745 108.767412,45.5250409 108.185916,45.3785967 C108.086721,45.3536012 107.981179,45.2491348 107.922682,45.1488588 C107.369322,44.2005005 107.306638,43.1295908 107.343542,42.0427281 C107.4023,40.3106877 107.70427,38.6165081 108.056557,36.9381345 C108.553121,34.5723114 109.106939,32.2217062 109.619077,29.859853 C109.697465,29.4985946 109.913195,29.3792779 110.190562,29.2830453 C110.143516,28.9681756 110.091301,28.6697001 110.056098,28.368725 C110.018279,28.045695 110.145282,27.810958 110.441887,27.8281608 C110.991975,27.8599197 111.544746,27.9113075 112.08659,28.0176119 C112.479314,28.0946568 112.86255,28.2542603 113.238589,28.4115849 C113.713299,28.6102255 113.870336,28.9084805 113.838144,29.4748489 C113.82918,29.6329086 113.823029,29.8023633 113.768982,29.944176 C113.299964,31.1738806 113.350805,32.5081986 113.144497,33.7901732 C113.057407,34.3316196 112.982029,34.8754185 112.904623,35.4187763 C112.887283,35.5404456 112.883554,35.6645408 112.867392,35.8632549" id="Fill-4"></path>
                            <path d="M153.082469,37.2856981 C153.417253,37.4047205 153.589201,37.7878336 153.599515,38.2102526 C153.608063,38.5607688 153.509373,38.9292015 153.39719,39.264169 C153.304646,39.5406514 153.101402,39.7681199 152.984627,40.0375778 C152.655212,40.7975689 152.064907,41.2862079 151.517554,41.8124163 C150.949362,42.3586722 150.346977,42.860571 149.758226,43.3799917 C149.272546,43.8084881 148.792376,44.2455086 148.294969,44.6564831 C148.063609,44.8475661 147.802507,44.9972123 147.545432,45.1453589 C147.119376,45.3907439 146.687314,45.6233427 146.254618,45.8539683 C146.033147,45.9720436 145.799526,46.0625732 145.581094,46.1868048 C145.335605,46.3265061 145.100924,46.4898068 144.862075,46.6438729 C144.803511,46.6816791 144.751517,46.7400853 144.688996,46.7606853 C144.229879,46.9123047 143.771538,47.0687386 143.307545,47.199679 C142.888695,47.3179121 142.462356,47.4024433 142.040609,47.5082059 C141.790669,47.5707952 141.543696,47.6477494 141.294674,47.7148376 C140.77127,47.8558018 140.252952,48.0356771 139.722554,48.1260489 C138.48112,48.3377319 137.268085,48.2212352 136.025309,47.9218639 C134.852753,47.639462 133.751972,47.2115181 132.654441,46.7092247 C132.145307,46.4762313 131.781983,46.118217 131.514664,45.5993488 C131.292205,45.1676164 131.072501,44.7308326 130.811894,44.3283033 C130.698863,44.1536372 130.500352,43.9874163 130.316253,43.9426645 C129.833469,43.8252996 129.550326,43.5363467 129.542414,42.9737528 C129.538105,42.6644366 129.598647,42.3525948 129.643435,42.0443047 C129.682431,41.7761887 129.74043,41.5115454 129.796522,41.2103587 C129.898391,41.1363249 130.040457,41.0332459 130.203646,40.914697 C129.756043,40.3472096 129.826122,39.7262885 129.984436,39.1279405 C130.153629,38.4887082 130.409998,37.8788368 130.59551,37.2441823 C130.739554,36.7513602 130.832027,36.2398322 130.950145,35.737381 C130.982288,35.6005999 130.986951,35.3959414 131.067697,35.3426655 C131.642177,34.9640511 131.729918,34.2233183 132.090133,33.6899275 C132.443214,33.167113 132.770156,32.616516 133.165271,32.1362433 C133.816753,31.3443656 134.506525,30.5910833 135.196509,29.8402478 C135.37637,29.6445081 135.614088,29.5134887 135.829907,29.3609222 C136.117359,29.1576844 136.438861,29.0009347 136.694382,28.7570493 C137.664683,27.8305216 138.77599,27.6848218 139.976379,27.9373103 C140.440301,28.0348644 140.901397,28.1111871 141.175356,28.6333702 C141.221416,28.7212163 141.393718,28.7425267 141.512118,28.7634425 C141.710629,28.7984073 141.94644,28.7406325 142.107438,28.8406334 C142.782163,29.2598953 143.491927,29.6475862 144.076156,30.1964468 C144.482503,30.5782182 144.82089,31.1628328 144.981959,31.730478 C145.202652,32.5080699 144.823503,33.2414625 144.380139,33.816448 C143.73014,34.6592339 142.993178,35.4185146 142.288005,36.207472 C142.172643,36.3365971 142.034886,36.4434647 141.899037,36.5466227 C140.966602,37.2546007 140.035862,37.965578 139.096574,38.6621115 C138.405601,39.1744287 137.673443,39.6005573 137.010869,40.1826462 C136.404104,40.7157213 135.61981,40.9958343 134.91704,41.394654 C134.8447,41.4356962 134.764095,41.51415 134.738945,41.5952083 C134.513236,42.3229971 134.464704,43.0631774 134.705813,43.7958597 C134.903476,44.3963387 135.306714,44.74133 135.866995,44.8811102 C136.301034,44.9893985 136.726243,45.1417282 137.159787,45.2532525 C137.339012,45.2993461 137.530458,45.3109484 137.715052,45.302661 C141.01577,45.1545145 144.091486,44.0916003 146.995536,42.3840868 C147.949447,41.8231504 148.831513,41.1102789 149.783023,40.5435808 C150.652302,40.0258965 151.471424,39.4451494 152.149681,38.6509038 C152.48291,38.2606082 152.741681,37.7909907 153.082469,37.2856981 L153.082469,37.2856981 Z M141.274046,33.0111526 C141.192381,32.7583484 141.173943,32.4974147 141.078079,32.4550308 C140.952897,32.3995449 140.749865,32.482971 140.609706,32.5675022 C140.332074,32.734907 140.068146,32.9337249 139.810012,33.1376731 C138.705487,34.0102146 137.825469,35.1405326 136.953788,36.2775595 C136.625504,36.7057402 136.321026,37.1569676 136.012664,37.6037751 C135.971549,37.6632863 135.971619,37.7584727 135.952687,37.8370843 C136.036471,37.8470291 136.124635,37.8796261 136.202697,37.8604468 C136.278287,37.8418199 136.347235,37.7756788 136.412511,37.7206665 C137.246185,37.0188448 138.08537,36.3249948 138.909225,35.6091241 C139.557034,35.0461355 140.204278,34.4785692 140.812738,33.8647515 C141.029263,33.6463596 141.13085,33.2858986 141.274046,33.0111526 L141.274046,33.0111526 Z" id="Fill-5"></path>
                            <path d="M44.3552938,12.9860608 C44.623805,15.0765319 43.9701822,16.2671718 42.5638645,16.6963639 C43.1598221,15.4617856 43.757558,14.2238099 44.3552938,12.9860608" id="Fill-6"></path>
                        </g>
                        <text id="CONSULTING-SERVICES" sketch:type="MSTextLayer" font-family="Open Sans" font-size="14.278" font-weight="526" letter-spacing="2.2" fill="#595F6F">
                            <tspan x="0" y="83.377018">CONSULTING SERVICES</tspan>
                        </text>
                    </g>
                </g>
            </g>
        </g>
    </g>
</svg>