<?xml version="1.0" encoding="UTF-8" standalone="no"?>
<svg width="96px" height="29px" viewBox="0 0 96 29" version="1.1" xmlns="http://www.w3.org/2000/svg" xmlns:xlink="http://www.w3.org/1999/xlink" xmlns:sketch="http://www.bohemiancoding.com/sketch/ns">
    <!-- Generator: Sketch 3.3.2 (12043) - http://www.bohemiancoding.com/sketch -->
    <title>Imported Layers</title>
    <desc>Created with Sketch.</desc>
    <defs></defs>
    <g id="Page-1" stroke="none" stroke-width="1" fill="none" fill-rule="evenodd" sketch:type="MSPage">
        <g id="WCS" sketch:type="MSArtboardGroup" transform="translate(-164.000000, -833.000000)" fill="#595F6F">
            <g id="Group" sketch:type="MSLayerGroup" transform="translate(164.000000, 831.000000)">
                <path d="M93.3694274,26.1850875 C93.754927,26.1850875 94.132622,26.284125 94.4980189,26.4848125 C94.8671998,26.6833625 95.1540778,26.968125 95.3588892,27.3383875 C95.5651197,27.708175 95.6661064,28.094825 95.6661064,28.496675 C95.6661064,28.89425 95.5660657,29.2773375 95.3636193,29.64475 C95.1616458,30.0126375 94.8778424,30.2976375 94.5129186,30.5004625 C94.1494137,30.7032875 93.7672251,30.80375 93.3694274,30.80375 C92.9697376,30.80375 92.5882585,30.7032875 92.2238076,30.5004625 C91.8598298,30.2976375 91.5760264,30.0126375 91.3719244,29.64475 C91.168059,29.2773375 91.0684913,28.89425 91.0684913,28.496675 C91.0684913,28.094825 91.170897,27.708175 91.376418,27.3383875 C91.5826484,26.968125 91.8697629,26.6833625 92.2382343,26.4848125 C92.6062327,26.284125 92.9827452,26.1850875 93.3694274,26.1850875 L93.3694274,26.1850875 Z M93.3694274,26.5677 C93.045655,26.5677 92.7315792,26.65225 92.424835,26.8182625 C92.1185639,26.984275 91.8799325,27.221775 91.7082314,27.5312375 C91.5344019,27.840225 91.4483148,28.1618 91.4483148,28.496675 C91.4483148,28.8294125 91.5334558,29.1481375 91.7035014,29.45285 C91.8721279,29.7585125 92.1088672,29.99625 92.4144289,30.1660625 C92.7192811,30.336825 93.0373774,30.4225625 93.3694274,30.4225625 C93.6991123,30.4225625 94.0183911,30.336825 94.3222973,30.1660625 C94.6280954,29.99625 94.8643618,29.7585125 95.0325153,29.45285 C95.2011418,29.1481375 95.2860463,28.8294125 95.2860463,28.496675 C95.2860463,28.1618 95.1997228,27.840225 95.0282582,27.5312375 C94.8558477,27.221775 94.6167433,26.984275 94.3109451,26.8182625 C94.0039645,26.65225 93.6896522,26.5677 93.3694274,26.5677 L93.3694274,26.5677 Z M92.3605063,29.773475 L92.3605063,27.2870875 L93.2100244,27.2870875 C93.5009229,27.2870875 93.711647,27.3106 93.8398315,27.356675 C93.9706176,27.4025125 94.0742058,27.4827875 94.1517787,27.5963125 C94.2293517,27.711025 94.2679016,27.83215 94.2679016,27.960875 C94.2679016,28.1420875 94.2035729,28.3005 94.0742058,28.434925 C93.9448388,28.569825 93.7745567,28.64535 93.5614677,28.6631625 C93.6487372,28.69855 93.717796,28.7420125 93.7707727,28.793075 C93.8705769,28.8916375 93.9926123,29.055275 94.1373521,29.2858875 L94.4388932,29.773475 L93.9512243,29.773475 L93.7315132,29.381125 C93.5586296,29.0726125 93.419566,28.8807125 93.3133762,28.8028125 C93.2405333,28.7458125 93.134107,28.71755 92.9940974,28.71755 L92.758777,28.71755 L92.758777,29.773475 L92.3605063,29.773475 L92.3605063,29.773475 Z M92.758777,28.374125 L93.2431348,28.374125 C93.4749076,28.374125 93.6328915,28.3396875 93.71685,28.2703375 C93.801991,28.2009875 93.8436155,28.109075 93.8436155,27.9943625 C93.8436155,27.92145 93.8244588,27.855425 93.7830708,27.7977125 C93.7426288,27.7392875 93.6853951,27.69535 93.6144443,27.6670875 C93.5430204,27.638825 93.4082138,27.624575 93.2138085,27.624575 L92.758777,27.624575 L92.758777,28.374125 L92.758777,28.374125 Z M17.4222179,14.796725 C13.8018325,14.796725 10.760406,17.6816375 10.760406,21.2591 L10.760406,24.3815125 C10.760406,27.8870125 13.6478691,30.80375 17.2060543,30.80375 C19.6188562,30.80375 21.732009,29.518875 22.9043536,27.641675 C23.0408157,27.370925 22.9320244,27.0006625 22.6777839,26.8318 L21.1376774,25.915525 C20.7831597,25.70415 20.3425549,25.7932125 20.1119646,26.22475 C19.5550004,27.2068125 18.5155705,27.7934375 17.3602541,27.7934375 C15.9506972,27.7934375 14.7792987,26.8728875 14.307239,25.6089125 C14.1457076,25.238175 14.2443293,24.8669625 14.8388974,24.7106875 L23.0803117,22.549675 C23.6304173,22.3955375 23.8787453,22.1247875 23.8787453,21.535075 L23.8787453,21.2270375 C23.8787453,17.7194 20.9908091,14.796725 17.4222179,14.796725 L17.4222179,14.796725 Z M19.7075448,20.06875 L14.7083478,21.3842625 C14.4030227,21.4776 14.0227261,21.2963875 14.0842168,20.804525 C14.307239,19.1645875 15.5810433,17.8198625 17.26991,17.8198625 C18.4659049,17.8198625 19.4239779,18.4202625 20.0045923,19.3593375 C20.2453522,19.6961125 20.1424735,19.94715 19.7075448,20.06875 L19.7075448,20.06875 Z M38.6951749,9.7790625 L37.1184105,9.7790625 C36.4713387,9.7790625 36.2223012,10.07475 36.2223012,10.7483 L36.2223012,14.449025 C36.2223012,14.84755 36.073068,15.26555 35.4442069,15.0724625 C34.8508213,14.92165 34.2195952,14.796725 33.5897882,14.796725 C29.9720043,14.796725 26.9740944,17.6816375 26.9740944,21.2591 L26.9740944,24.3815125 C26.9740944,27.8870125 29.8263186,30.80375 33.4114651,30.80375 C34.8226775,30.80375 38.5402655,30.4102125 38.5402655,30.4102125 C39.0896616,30.382425 39.4931355,30.048025 39.4931355,29.5457125 L39.4931355,10.7295375 C39.4931355,10.2037125 39.32782,9.7790625 38.6951749,9.7790625 L38.6951749,9.7790625 Z M36.2223012,26.581475 C36.2223012,27.119175 35.8897783,27.6029625 35.3543358,27.641675 C35.3543358,27.641675 34.3482528,27.7934375 33.5420146,27.7934375 C31.656614,27.7934375 30.2697614,26.1874625 30.2697614,24.3504 L30.2697614,21.2270375 C30.2697614,19.4206125 31.6116785,17.8198625 33.4729558,17.8198625 C34.6639841,17.8198625 36.2223012,18.395325 36.2223012,20.2480625 L36.2223012,26.581475 L36.2223012,26.581475 Z M50.9119654,14.796725 C50.2821583,14.796725 49.6521148,14.92165 49.0674797,15.0724625 C48.4573024,15.26555 48.2827633,14.84755 48.2827633,14.449025 L48.2827633,10.7483 C48.2827633,10.07475 48.0280498,9.7790625 47.3625308,9.7790625 L45.8176943,9.7790625 C45.1836302,9.7790625 45.0076721,10.2037125 45.0076721,10.7295375 L45.0076721,29.5457125 C45.0076721,30.048025 45.4111459,30.382425 45.9756782,30.4102125 C45.9756782,30.4102125 49.6781301,30.80375 51.1293115,30.80375 C54.6848951,30.80375 57.556276,27.8870125 57.556276,24.3815125 L57.556276,21.2591 C57.556276,17.6816375 54.5278572,14.796725 50.9119654,14.796725 L50.9119654,14.796725 Z M54.2447633,24.3504 C54.2447633,26.1874625 52.8342604,27.7934375 50.9514613,27.7934375 C50.1665084,27.7934375 49.1590063,27.641675 49.1590063,27.641675 C48.6254559,27.6029625 48.2827633,27.119175 48.2827633,26.581475 L48.2827633,20.2480625 C48.2827633,18.395325 49.8767924,17.8198625 51.0306898,17.8198625 C52.8933861,17.8198625 54.2447633,19.4206125 54.2447633,21.2270375 L54.2447633,24.3504 L54.2447633,24.3504 Z M67.1828874,14.796725 C63.5542244,14.796725 60.5307722,17.6816375 60.5307722,21.2591 L60.5307722,24.3815125 C60.5307722,27.8870125 63.4000246,30.80375 66.9546622,30.80375 C70.6024819,30.80375 73.609852,27.920975 73.609852,24.3504 L73.609852,21.2270375 C73.609852,17.7194 70.7349235,14.796725 67.1828874,14.796725 L67.1828874,14.796725 Z M70.3413828,24.3815125 C70.3413828,26.1874625 68.9651728,27.7934375 67.1109906,27.7934375 C65.2416721,27.7934375 63.8529275,26.1874625 63.8529275,24.3504 L63.8529275,21.2270375 C63.8529275,19.4206125 65.1801814,17.8198625 67.0357827,17.8198625 C68.9088851,17.8198625 70.3413828,19.4206125 70.3413828,21.2591 L70.3413828,24.3815125 L70.3413828,24.3815125 Z M89.666739,29.3664 L85.0958487,22.62615 C84.7328168,22.06945 84.6876448,21.40825 85.0778745,20.8584375 L88.3967187,16.0276875 C88.7694472,15.4676625 88.5357824,14.974375 87.9423968,14.974375 L85.8942822,14.974375 C85.4075594,14.974375 85.2718068,15.1422875 84.7749143,15.8942125 L83.2142321,18.182525 C82.8578223,18.7052625 82.4966825,18.6732 82.1762212,18.201525 L80.6337497,15.8942125 C80.2158492,15.2942875 79.8890022,14.974375 79.4973536,14.974375 L77.3950798,14.974375 C76.8177764,14.974375 76.6068159,15.510175 76.9731588,16.0276875 L80.3492368,20.9596125 C80.6954769,21.4455375 80.7212557,21.8982125 80.324404,22.46655 L75.5129903,29.3664 C75.1598916,29.8858125 75.4072735,30.4102125 76.0013686,30.4102125 L77.9435299,30.4102125 C78.5033321,30.4102125 78.7242258,30.1663 79.1811493,29.4896625 L82.0709774,25.1149125 C82.4037369,24.5957375 82.8859662,24.6532125 83.1893993,25.1149125 L85.999526,29.4896625 C86.4427323,30.2064375 86.7076155,30.4102125 87.0628427,30.4102125 L89.2228231,30.4102125 C89.8358385,30.4102125 90.0207837,29.909325 89.666739,29.3664 L89.666739,29.3664 Z M79.7575067,11.1285375 C79.8518713,11.1625 79.9613721,11.1147625 79.9999221,11.022375 C80.0406006,10.9238125 80.0034696,10.81575 79.909578,10.7673 C69.0479488,5.197925 57.3131511,2.375 45.0377079,2.375 C32.7589537,2.375 21.0255751,5.197925 10.1601618,10.7673 C10.0707637,10.81575 10.0315043,10.9238125 10.0707637,11.022375 C10.1107327,11.1147625 10.2207065,11.1625 10.3174362,11.1285375 C21.4600308,7.1936375 33.1413788,5.1927 45.0377079,5.1843875 C56.928361,5.1927 68.6130201,7.1936375 79.7575067,11.1285375 L79.7575067,11.1285375 Z M7.87838245,14.772975 C6.2476954,14.772975 4.64420618,15.324925 3.30985718,16.2488 L3.30985718,15.5417625 C3.30985718,15.038025 2.9196275,14.6758375 2.32269435,14.6758375 L0.947430358,14.6758375 C0.369653932,14.6758375 0,15.173875 0,15.5674125 L0,29.5585375 C0,29.9518375 0.369653932,30.449875 0.947430358,30.449875 L2.32269435,30.449875 C2.9196275,30.449875 3.30985718,30.0881625 3.30985718,29.585375 L3.30985718,21.54125 C3.30985718,19.5032625 5.85746572,17.8288875 7.70124183,17.8288875 C8.42233897,17.8288875 8.75959201,17.3610125 8.75959201,17.0793375 L8.75959201,15.721075 C8.75959201,15.1399125 8.40436476,14.772975 7.87838245,14.772975 L7.87838245,14.772975 Z" id="Imported-Layers" sketch:type="MSShapeGroup"></path>
            </g>
        </g>
    </g>
</svg>